Creating a confusion matrix with cvms
…
library(cvms)
library(tibble)   # tibble()

set.seed(1)

Binomial data

We will start with a binary classification example. For this, we
create a data frame with targets and predictions:

d_binomial <- tibble("target" = rbinom(100, 1, 0.7),
                     "prediction" = rbinom(100, 1, 0.6))

d_binomial
#> # A tibble: 100 × 2
#>    target prediction
#>     <int>      <int>
#>  1      1          0
#>  2      1          1
#>  3      1          1
#>  4      0          0
#>  5      1          0
#>  6      0          1
#>  7      0          1
#>  8      1          1
#>  9      1          0
#> 10      1          1
#> # ℹ 90 more rows
…
Multiclass confusion matrix with
confusion_matrix()

A third approach is to use the confusion_matrix()
function. It is a lightweight alternative to evaluate()
with fewer features. As a matter of fact, evaluate() uses
it internally! Let’s try it on a multiclass classification task.

Create a data frame with targets and predictions:

d_multi <- tibble("target" = floor(runif(100) * 3),
                  "prediction" = floor(runif(100) * 3))

d_multi
#> # A tibble: 100 × 2
#>    target prediction
#>     <dbl>      <dbl>
#>  1      0          2
#>  2      0          0
#>  3      1          1
#>  4      0          1
#>  5      0          1
#>  6      1          2
#>  7      1          0
#>  8      0          2
#>  9      0          0
#> 10      2          1
#> # ℹ 90 more rows
…
