Cross-validating custom model functions with cvms
…
And a set of multiclass confusion matrices (one per fold column):

# Extract multiclass confusion matrices for the best model
# One per fold column
cv_5$`Confusion Matrix`[[11]]
#> # A tibble: 80 × 4
#>    `Fold Column` Prediction Target     N
#>    <chr>         <chr>      <chr>  <int>
#>  1 .folds_1      A          A          9
#>  2 .folds_1      B          A          4
#>  3 .folds_1      C          A          1
#>  4 .folds_1      D          A          1
#>  5 .folds_1      A          B          4
#>  6 .folds_1      B          B          6
#>  7 .folds_1      C          B          3
#>  8 .folds_1      D          B          2
#>  9 .folds_1      A          C          2
#> 10 .folds_1      B          C          0
#> # ℹ 70 more rows
…
