Evaluate by ID/group
…
Let’s duplicate the dataset and change the predictions. We then
combine the datasets and add a model column for indicating
which of the data frames the observation came from:

# Duplicate data frame
data_2 <- data
# Change the probabilities and predicted classes
data_2[["probability"]] <- runif(nrow(data))
data_2[["predicted diagnosis"]] <- ifelse(data_2[["probability"]] > 0.5, 1, 0)

# Combine the two data frames
data_multi <- dplyr::bind_rows(data, data_2, .id = "model")

data_multi
#> # A tibble: 60 × 8
#>    model participant   age diagnosis score session probability
#>    <chr> <fct>       <dbl>     <dbl> <dbl>   <int>       <dbl>
#>  1 1     1              20         1    10       1      0.705 
#>  2 1     1              20         1    24       2      0.480 
#>  3 1     1              20         1    45       3      0.196 
#>  4 1     2              23         0    24       1      0.937 
#>  5 1     2              23         0    40       2      0.870 
#>  6 1     2              23         0    67       3      0.214 
#>  7 1     3              27         1    15       1      0.0241
#>  8 1     3              27         1    30       2      0.855 
#>  9 1     3              27         1    40       3      0.703 
#> 10 1     4              21         0    35       1      0.958 
#> # ℹ 50 more rows
#> # ℹ 1 more variable: `predicted diagnosis` <dbl>
…
