Multiple-k: Picking the number of folds for cross-validation
…
# Enable parallelization
# NOTE: Uncomment to run
# library(doParallel)
# doParallel::registerDoParallel(6)

Now, we load the data and convert it to a tibble:

# Load iris
data("iris")

# Convert iris to a tibble
iris <- dplyr::as_tibble(iris)
iris
#> # A tibble: 150 × 5
#>    Sepal.Length Sepal.Width Petal.Length Petal.Width Species
#>           <dbl>       <dbl>        <dbl>       <dbl> <fct>  
#>  1          5.1         3.5          1.4         0.2 setosa 
#>  2          4.9         3            1.4         0.2 setosa 
#>  3          4.7         3.2          1.3         0.2 setosa 
#>  4          4.6         3.1          1.5         0.2 setosa 
#>  5          5           3.6          1.4         0.2 setosa 
#>  6          5.4         3.9          1.7         0.4 setosa 
#>  7          4.6         3.4          1.4         0.3 setosa 
#>  8          5           3.4          1.5         0.2 setosa 
#>  9          4.4         2.9          1.4         0.2 setosa 
#> 10          4.9         3.1          1.5         0.1 setosa 
#> # ℹ 140 more rows
…
data <- iris %>% 
  groupdata2::fold(
    k = fold_counts, 
    cat_col = "Species", 
    num_fold_cols = length(fold_counts),  # Must match the length of `k` 
    parallel = TRUE
  )

data
#> # A tibble: 150 × 35
#>    Sepal.Length Sepal.Width Petal.Length Petal.Width Species .folds_1 .folds_2
#>           <dbl>       <dbl>        <dbl>       <dbl> <fct>   <fct>    <fct>   
#>  1          5.1         3.5          1.4         0.2 setosa  1        2       
#>  2          4.9         3            1.4         0.2 setosa  2        2       
#>  3          4.7         3.2          1.3         0.2 setosa  2        1       
#>  4          4.6         3.1          1.5         0.2 setosa  3        2       
#>  5          5           3.6          1.4         0.2 setosa  1        2       
#>  6          5.4         3.9          1.7         0.4 setosa  3        1       
#>  7          4.6         3.4          1.4         0.3 setosa  3        3       
#>  8          5           3.4          1.5         0.2 setosa  2        1       
#>  9          4.4         2.9          1.4         0.2 setosa  2        1       
#> 10          4.9         3.1          1.5         0.1 setosa  1        3       
#> # ℹ 140 more rows
#> # ℹ 28 more variables: .folds_3 <fct>, .folds_4 <fct>, .folds_5 <fct>,
#> #   .folds_6 <fct>, .folds_7 <fct>, .folds_8 <fct>, .folds_9 <fct>,
#> #   .folds_10 <fct>, .folds_11 <fct>, .folds_12 <fct>, .folds_13 <fct>,
#> #   .folds_14 <fct>, .folds_15 <fct>, .folds_16 <fct>, .folds_17 <fct>,
#> #   .folds_18 <fct>, .folds_19 <fct>, .folds_20 <fct>, .folds_21 <fct>,
#> #   .folds_22 <fct>, .folds_23 <fct>, .folds_24 <fct>, .folds_25 <fct>, …
…
# Make the formula string prettier for plotting
# Sepal -> S; Petal -> P; Width -> W; Length -> L
fold_column_results <- fold_column_results %>% 
  dplyr::mutate(
    Formula = gsub(
      x = Formula,
      pattern = "[^SPWL+*]",
      replacement = ""
    )
  )

This leaves us with the following data frame:

fold_column_results
#> # A tibble: 120 × 14
#>    Formula `Fold Column` `Overall Accuracy` `Balanced Accuracy`    F1
#>    <chr>   <chr>                      <dbl>               <dbl> <dbl>
#>  1 SL+SW   .folds_1                   0.773               0.83  0.774
#>  2 SL+SW   .folds_2                   0.767               0.825 0.768
#>  3 SL+SW   .folds_3                   0.76                0.82  0.761
#>  4 SL+SW   .folds_4                   0.78                0.835 0.780
#>  5 SL+SW   .folds_5                   0.8                 0.85  0.801
#>  6 SL+SW   .folds_6                   0.787               0.84  0.787
#>  7 SL+SW   .folds_7                   0.78                0.835 0.781
#>  8 SL+SW   .folds_8                   0.807               0.855 0.806
#>  9 SL+SW   .folds_9                   0.787               0.84  0.788
#> 10 SL+SW   .folds_10                  0.787               0.84  0.787
#> # ℹ 110 more rows
#> # ℹ 9 more variables: Sensitivity <dbl>, Specificity <dbl>,
#> #   `Pos Pred Value` <dbl>, `Neg Pred Value` <dbl>, Kappa <dbl>, MCC <dbl>,
#> #   `Detection Rate` <dbl>, `Detection Prevalence` <dbl>, Prevalence <dbl>

Currently, we lack the number of folds for each of the fold columns.
We have stored those in the fold column statistics we looked at in the
beginning (fold_stats), so let’s add them with
dplyr::left_join():

# Select the `Num Groups` column and rename to `Num Folds`
fold_counts_df <- fold_stats %>% 
  dplyr::select(`Fold Column`, `Num Groups`) %>% 
  dplyr::rename(`Num Folds` = `Num Groups`)

fold_counts_df
#> # A tibble: 30 × 2
#>    `Fold Column` `Num Folds`
#>    <chr>               <dbl>
#>  1 .folds_1                3
#>  2 .folds_2                3
#>  3 .folds_3                3
#>  4 .folds_4                8
#>  5 .folds_5                8
#>  6 .folds_6                8
#>  7 .folds_7               13
#>  8 .folds_8               13
#>  9 .folds_9               13
#> 10 .folds_10              19
#> # ℹ 20 more rows

# Add the counts with a join
fold_column_results <- fold_counts_df %>% 
  dplyr::left_join(fold_column_results, by = "Fold Column")

fold_column_results
#> # A tibble: 120 × 15
#>    `Fold Column` `Num Folds` Formula     `Overall Accuracy` `Balanced Accuracy`
#>    <chr>               <dbl> <chr>                    <dbl>               <dbl>
#>  1 .folds_1                3 SL+SW                    0.773               0.83 
#>  2 .folds_1                3 PL+PW                    0.967               0.975
#>  3 .folds_1                3 SL+SW+PL+PW              0.967               0.975
#>  4 .folds_1                3 SL*SW+PL*PW              0.973               0.98 
#>  5 .folds_2                3 SL+SW                    0.767               0.825
#>  6 .folds_2                3 PL+PW                    0.953               0.965
#>  7 .folds_2                3 SL+SW+PL+PW              0.96                0.97 
#>  8 .folds_2                3 SL*SW+PL*PW              0.967               0.975
#>  9 .folds_3                3 SL+SW                    0.76                0.82 
#> 10 .folds_3                3 PL+PW                    0.96                0.97 
#> # ℹ 110 more rows
#> # ℹ 10 more variables: F1 <dbl>, Sensitivity <dbl>, Specificity <dbl>,
#> #   `Pos Pred Value` <dbl>, `Neg Pred Value` <dbl>, Kappa <dbl>, MCC <dbl>,
#> #   `Detection Rate` <dbl>, `Detection Prevalence` <dbl>, Prevalence <dbl>
…
To plot the average lines for each formula, we calculate the average
Balanced Accuracy for each formula, for each number of
folds setting:

avg_balanced_acc <- fold_column_results %>%
  dplyr::group_by(`Num Folds`, Formula) %>%
  dplyr::summarise(`Balanced Accuracy` = mean(`Balanced Accuracy`),
                   .groups = "drop")

avg_balanced_acc
#> # A tibble: 40 × 3
#>    `Num Folds` Formula     `Balanced Accuracy`
#>          <dbl> <chr>                     <dbl>
#>  1           3 PL+PW                     0.97 
#>  2           3 SL*SW+PL*PW               0.978
#>  3           3 SL+SW                     0.825
#>  4           3 SL+SW+PL+PW               0.973
#>  5           8 PL+PW                     0.967
#>  6           8 SL*SW+PL*PW               0.97 
#>  7           8 SL+SW                     0.842
#>  8           8 SL+SW+PL+PW               0.967
#>  9          13 PL+PW                     0.967
#> 10          13 SL*SW+PL*PW               0.98 
#> # ℹ 30 more rows
…
This gives us a list with the fold column results for each species
which we concatenate to a single data frame.

# Extract class level fold column results for the best model
# It is a list of tibbles (one for each species) 
# so we concatenate them to a single tibble with bind_rows()
class_level_fold_results <- cv$`Class Level Results`[[4]]$Results %>% 
  dplyr::bind_rows()

# Add the Num Folds counts
class_level_fold_results <- fold_counts_df %>% 
  dplyr::left_join(class_level_fold_results, by = "Fold Column")

class_level_fold_results
#> # A tibble: 90 × 13
#>    `Fold Column` `Num Folds` Class      `Balanced Accuracy`    F1 Sensitivity
#>    <chr>               <dbl> <chr>                    <dbl> <dbl>       <dbl>
#>  1 .folds_1                3 setosa                   1     1            1   
#>  2 .folds_1                3 versicolor               0.965 0.959        0.94
#>  3 .folds_1                3 virginica                0.975 0.961        0.98
#>  4 .folds_2                3 setosa                   1     1            1   
#>  5 .folds_2                3 versicolor               0.96  0.949        0.94
#>  6 .folds_2                3 virginica                0.965 0.950        0.96
#>  7 .folds_3                3 setosa                   1     1            1   
#>  8 .folds_3                3 versicolor               0.96  0.958        0.92
#>  9 .folds_3                3 virginica                0.98  0.962        1   
#> 10 .folds_4                8 setosa                   0.99  0.990        0.98
#> # ℹ 80 more rows
#> # ℹ 7 more variables: Specificity <dbl>, `Pos Pred Value` <dbl>,
#> #   `Neg Pred Value` <dbl>, Kappa <dbl>, `Detection Rate` <dbl>,
#> #   `Detection Prevalence` <dbl>, Prevalence <dbl>
…
# Add a column for indicating the repetition of the `k` setting
class_level_fold_results <- class_level_fold_results %>% 
  # Group to restart groupdata2 group numbers for each `Num Folds` setting
  dplyr::group_by(`Num Folds`) %>% 
  # Create a group whenever the `Fold Column` column changes
  groupdata2::group(n = 'auto',
                    method = 'l_starts',
                    starts_col = "Fold Column",
                    col_name = "Repetition") %>% 
  dplyr::ungroup()

# Inspect the columns relevant to this
class_level_fold_results %>% 
  dplyr::select(`Fold Column`, `Num Folds`, Class, Repetition)
#> # A tibble: 90 × 4
#>    `Fold Column` `Num Folds` Class      Repetition
#>    <chr>               <dbl> <chr>      <fct>     
#>  1 .folds_1                3 setosa     1         
#>  2 .folds_1                3 versicolor 1         
#>  3 .folds_1                3 virginica  1         
#>  4 .folds_2                3 setosa     2         
#>  5 .folds_2                3 versicolor 2         
#>  6 .folds_2                3 virginica  2         
#>  7 .folds_3                3 setosa     3         
#>  8 .folds_3                3 versicolor 3         
#>  9 .folds_3                3 virginica  3         
#> 10 .folds_4                8 setosa     1         
#> # ℹ 80 more rows

To plot the average lines for each formula, we calculate the average
Balanced Accuracy for each class, for each number of folds
setting:

class_level_avg_balanced_acc <- class_level_fold_results %>%
  dplyr::group_by(`Num Folds`, Class) %>%
  dplyr::summarise(`Balanced Accuracy` = mean(`Balanced Accuracy`),
                   .groups = "drop")

class_level_avg_balanced_acc
#> # A tibble: 30 × 3
#>    `Num Folds` Class      `Balanced Accuracy`
#>          <dbl> <chr>                    <dbl>
#>  1           3 setosa                   1    
#>  2           3 versicolor               0.962
#>  3           3 virginica                0.973
#>  4           8 setosa                   0.993
#>  5           8 versicolor               0.955
#>  6           8 virginica                0.962
#>  7          13 setosa                   0.997
#>  8          13 versicolor               0.97 
#>  9          13 virginica                0.973
#> 10          19 setosa                   0.993
#> # ℹ 20 more rows
…
